IQB Methods Team - Data Frames, Listen und Grafiken in R
…
library(tidyr)

Umstrukturierung unserer Daten ins Long-Format:

dat %>% pivot_longer(
  cols=name:nachname,
  names_to = "variable",
  values_to = "value"
)

oder, äquivalent dazu, mit:

pivot_longer(dat, cols=name:nachname, names_to = "variable", values_to = "value")

# A tibble: 30 × 3
      ID variable   value   
   <dbl> <chr>      <chr>   
 1 43678 name       Stefan  
 2 43678 geschlecht m       
 3 43678 treatment  1       
 4 43678 bdi.wert   13      
 5 43678 nachname   Tegemann
 6 67743 name       Eike    
 7 67743 geschlecht m       
 8 67743 treatment  1       
 9 67743 bdi.wert   9.95    
10 67743 nachname   <NA>    
# ℹ 20 more rows
…
