IQB Methods Team - Data wrangling in the tidyverse
…
You can get an overview of the used shows with unique(characters_stats$uni_name) First, filter your two shows from the characters_stats data.frame.

Second, reshape this data.frame into long format.

Caution

compare_shows <- characters_summary %>%
  filter(str_detect(uni_name, c("Friends|How I Met Your Mother" ))) %>%
  pivot_wider(
    names_from = "uni_name",
    values_from = "mean_rating")

compare_shows

# A tibble: 364 × 3
   question               Friends `How I Met Your Mother`
   <chr>                    <dbl>                   <dbl>
 1 ADHD_OCD                  40.8                    46.6
 2 Coke_Pepsi                49.2                    48.1
 3 English_German            26.6                    31.3
 4 French_Russian            30.7                    38.7
 5 Greek_Roman               44.0                    47.9
 6 Italian_Swedish           39.2                    44.5
 7 abstract_concrete         46.0                    43.6
 8 accepting_judgemental     52.0                    53.4
 9 accommodating_stubborn    63.1                    63.6
10 active_slothful           40.6                    37.0
# ℹ 354 more rows
Now we could look at specific questions. For example the How I Met Your Mother characters seem to be rated a bit more slothful than the Friends characters.

Now, add a column containing the difference in rating between both shows for each question to your new comparison data.frame. Then, sort the rows by descending size of difference between the ratings. So the row with the highest difference in mean rating between your two shows should be on top.

Hint

To work with columns within mutate() you could for example use .$column_name.

Caution

compare_shows %>%
  mutate(diff_shows = .$Friends - .$"How I Met Your Mother") %>%
  arrange(desc(abs(diff_shows)))

# A tibble: 364 × 4
   question                            Friends How I Met Your Mothe…¹ diff_shows
   <chr>                                 <dbl>                  <dbl>      <dbl>
 1 cat.person_dog.person                  46.4                   65.1      -18.6
 2 musical_off.key                        61.5                   44.8       16.7
 3 nonpolitical_political                 40.2                   54.7      -14.5
 4 gamer_non.gamer                        58.6                   44.8       13.8
 5 focused.on.the.future_focused.on.t…    55.0                   41.8       13.2
 6 gatherer_hunter                        38.8                   51.2      -12.5
 7 captain_first.mate                     57.2                   44.9       12.3
 8 flower.child_goth                      21.5                   33.6      -12.1
 9 perceptive_unobservant                 48.2                   36.4       11.7
10 dunce_genius                           46.4                   57.9      -11.4
# ℹ 354 more rows
# ℹ abbreviated name: ¹​`How I Met Your Mother`
…
